…
#### Question 1.1

There are 134 aisles, and the aisles that the most items are ordered
from are packaged vegetables fruits, fresh fruits, fresh vegetables.
This can also be seen in the below code chunk and output.

``` r
instacart %>%
  count(aisle) %>% 
  arrange(desc(n))
```

    ## # A tibble: 134 × 2
    ##    aisle                              n
    ##    <chr>                          <int>
    ##  1 fresh vegetables              150609
    ##  2 fresh fruits                  150473
    ##  3 packaged vegetables fruits     78493
    ##  4 yogurt                         55240
    ##  5 packaged cheese                41699
    ##  6 water seltzer sparkling water  36617
    ##  7 milk                           32644
    ##  8 chips pretzels                 31269
    ##  9 soy lactosefree                26240
    ## 10 bread                          23635
    ## # … with 124 more rows
…
